%YAML 1.1
%TAG !u! tag:unity3d.com,2011:
--- !u!114 &11400000
MonoBehaviour:
  m_ObjectHideFlags: 0
  m_CorrespondingSourceObject: {fileID: 0}
  m_PrefabInstance: {fileID: 0}
  m_PrefabAsset: {fileID: 0}
  m_GameObject: {fileID: 0}
  m_Enabled: 1
  m_EditorHideFlags: 0
  m_Script: {fileID: 11500000, guid: 34cd659e266c1fd49928ef336e48dc60, type: 3}
  m_Name: PlayerInputs
  m_EditorClassIdentifier: 
  playerInputs:
  - horizontal: Horizontal
    vertical: Vertical
    fire: Fire1
    jump: Jump
    action: Action
