%YAML 1.1
%TAG !u! tag:unity3d.com,2011:
--- !u!1045 &1
EditorBuildSettings:
  m_ObjectHideFlags: 0
  serializedVersion: 2
  m_Scenes:
  - enabled: 1
    path: Assets/Scenes/Menu.unity
    guid: 94eaf47456d83354393069a9b060b9ed
  - enabled: 1
    path: Assets/Scenes/Tutorial.unity
    guid: f4318a15a8cc492418f3b4100ff0a5f3
  - enabled: 1
    path: Assets/Scenes/Level1.unity
    guid: 916e86c9b531871479498487a4c72680
  - enabled: 1
    path: Assets/Scenes/Level2.unity
    guid: e329691d74bb1e246a77c22089608393
  - enabled: 1
    path: Assets/Scenes/Level3.unity
    guid: a96829da108fef144898098048e86365
  m_configObjects: {}
