%YAML 1.1
%TAG !u! tag:unity3d.com,2011:
--- !u!78 &1
TagManager:
  serializedVersion: 2
  tags:
  - Helper
  - Light
  - Ground
  - Enemy
  - BagItem
  - Children
  - Wall
  - Door
  - DeadTrigger
  - hpUIHolder
  layers:
  - Default
  - TransparentFX
  - Ignore Raycast
  - 
  - Water
  - UI
  - 
  - 
  - Ground
  - Player
  - Enemy
  - Light
  - Wall
  - 
  - 
  - 
  - 
  - 
  - 
  - 
  - 
  - 
  - 
  - 
  - 
  - 
  - 
  - 
  - 
  - 
  - 
  - 
  m_SortingLayers:
  - name: Default
    uniqueID: 0
    locked: 0
  - name: background
    uniqueID: 3490674131
    locked: 0
  - name: wall
    uniqueID: 3556742759
    locked: 0
  - name: door
    uniqueID: 457973161
    locked: 0
  - name: charcters
    uniqueID: 3551491207
    locked: 0
